<svg id="Group_3538" data-name="Group 3538" xmlns="http://www.w3.org/2000/svg" width="181.409" height="65" viewBox="0 0 181.409 65">
  <path id="Path_1172" data-name="Path 1172" d="M159.692,361.18c.8-1.185.333-.493,0,0" transform="translate(-148.824 -319.864)" fill="#fff"/>
  <path id="Path_1173" data-name="Path 1173" d="M159.446,361.553c.045-.067.082-.119.122-.179-.073.1-.122.179-.122.179" transform="translate(-148.819 -319.874)" fill="#fff"/>
  <path id="Path_1174" data-name="Path 1174" d="M207.1,319.52c-14.715.409-28.464,9.127-40.094,17.42a184.02,184.02,0,0,0-18.391,14.85c3.411,3.143,6.983,6.112,10.627,8.982,0,0,.049-.075.122-.18.039-.059.085-.126.12-.178.333-.493.8-1.185,0,0-.042.065-.084.124-.12.178s-.077.112-.122.18c7.133-8.626,17.04-15.064,17.5-15.362,8.445-5.476,17.971-10.617,28.187-11.392.129-.01.264-.015.4-.018.016,0,.023,0,.037,0,11.034-1.085,21.156,2.109,27,10.163,4.691,6.471,5.044,15.16,5.044,15.16,4.576-19.07-9.457-39.488-30.3-39.8" transform="translate(-148.617 -319.52)" fill="#2da2dc"/>
  <path id="Path_1175" data-name="Path 1175" d="M201.376,362.576c-.276-5.437-5.372-9.6-11.38-9.292-.293.015-.593.048-.893.088-.2.024-.391.058-.588.09-.058.01-.116.023-.172.034-.313.059-.618.13-.922.21-7.695,2.02-16.385,10.346-16.385,10.346s9.431,7.815,17.333,8.816c.31.038.644.029.959.058.06.006.118.012.176.016.2.014.394.025.594.031.3.01.6.01.9-.006,6.008-.3,10.655-4.959,10.381-10.392" transform="translate(-149.035 -319.655)" fill="#fff"/>
  <path id="Path_1176" data-name="Path 1176" d="M209.528,338.959a47.37,47.37,0,0,0-17.394,5.351,20.435,20.435,0,0,1,8.849,1.764c7.308,3.27,12.563,10.922,11.354,19.033a15.042,15.042,0,0,1-1.706,5.293,21.042,21.042,0,0,1-16.991,10.975c-.174.013-.348.016-.523.026a39.263,39.263,0,0,0,17.12,2.687,31.252,31.252,0,0,0,14.476-5.167c6.806-5,9.9-14.384,7.884-22.9-2.517-10.62-11.594-18.1-23.069-17.061" transform="translate(-149.429 -319.214)" fill="#0a6eab"/>
  <path id="Path_1177" data-name="Path 1177" d="M262.4,353.25h-4.8V346.27h4.8a3.495,3.495,0,1,1,0,6.979m12.166-3.491c0-5.669-4.122-11.1-11.78-11.1H249.121v34.509H257.6V360.326h2.859l6.107,12.842h9.839l-7.463-14.394a9.929,9.929,0,0,0,5.623-9.015" transform="translate(-150.493 -319.457)" fill="#fff"/>
  <path id="Path_1178" data-name="Path 1178" d="M292.718,349.229H286.8v7.754H279V362.9h7.8v7.753h5.914V362.9h7.753v-5.915h-7.753Z" transform="translate(-151.051 -319.621)" fill="#2da2dc"/>
  <path id="Path_1179" data-name="Path 1179" d="M318.952,353.25h-4.8V346.27h4.8a3.495,3.495,0,1,1,0,6.979m12.166-3.491c0-5.669-4.122-11.1-11.78-11.1H305.672v34.509h8.481V360.326h2.861l6.106,12.842h9.838l-7.462-14.394a9.926,9.926,0,0,0,5.623-9.015" transform="translate(-151.548 -319.457)" fill="#fff"/>
</svg>
